{
  "flows": [
    "flows/b136476c.4ec9b8-Sheet1.json",
    "flows/2715b56d.d8ea4a-Sheet2.json",
    "flows/442a87d2.bbd578-Sheet3.json",
    "flows/69963d7a.9669c4-Sheet4.json",
    "flows/3b9d7a0.fc46286-Sheet5.json"
  ],
  "configs": [],
  "credentials": {
    "9946de67.66b92": {},
    "1d5ae3f.fe2a51c": {
      "user": "58437cae-38b3-4df9-8ae3-b3c100208b6d",
      "password": "3NQgBfwbJ6Nx"
    }
  }
}