{
  "type": "tab",
  "id": "69963d7a.9669c4",
  "label": "Sheet 4",
  "flow": [
    {
      "id": "73deeee3.8c211",
      "type": "http in",
      "z": "69963d7a.9669c4",
      "name": "",
      "url": "/test",
      "method": "post",
      "swaggerDoc": "",
      "x": 144,
      "y": 183,
      "wires": [
        [
          "9a70cdc8.658f3",
          "327d8b86.cd8274"
        ]
      ]
    },
    {
      "id": "9a70cdc8.658f3",
      "type": "debug",
      "z": "69963d7a.9669c4",
      "name": "",
      "active": true,
      "console": "false",
      "complete": "req",
      "x": 518,
      "y": 191,
      "wires": []
    },
    {
      "id": "327d8b86.cd8274",
      "type": "http response",
      "z": "69963d7a.9669c4",
      "name": "",
      "x": 453,
      "y": 99,
      "wires": []
    }
  ]
}